{"failedCount":2,"prefixedPath":"classpath:com\/ps\/test\/First_Test.feature","packageQualifiedName":"com.ps.test.First_Test","loopIndex":-1,"relativePath":"com\/ps\/test\/First_Test.feature","scenarioResults":[{"sectionIndex":0,"stepResults":[{"result":{"nanos":5133000,"millis":5.133,"status":"passed"},"step":{"line":19,"prefix":"Given","index":0,"text":"url 'https:\/\/reqres.in\/api\/user'"}},{"result":{"nanos":1289048500,"millis":1289.0485,"status":"passed"},"step":{"line":20,"prefix":"When","index":1,"text":"method get"},"stepLog":"17:40:57.169 request:\n1 > GET https:\/\/reqres.in\/api\/user\n1 > Host: reqres.in\n1 > Connection: Keep-Alive\n1 > User-Agent: Apache-HttpClient\/4.5.13 (Java\/17.0.2)\n1 > Accept-Encoding: gzip,deflate\n\n\n17:40:58.177 response time in milliseconds: 1006\n1 < 200\n1 < Date: Thu, 14 Jul 2022 12:11:22 GMT\n1 < Content-Type: application\/json; charset=utf-8\n1 < Transfer-Encoding: chunked\n1 < Connection: keep-alive\n1 < X-Powered-By: Express\n1 < Access-Control-Allow-Origin: *\n1 < Etag: W\/\"2c1-N6Rqerxquq2kgQhL51EiSg4x0R8\"\n1 < Via: 1.1 vegur\n1 < Cache-Control: max-age=14400\n1 < CF-Cache-Status: STALE\n1 < Age: 12506\n1 < Expect-CT: max-age=604800, report-uri=\"https:\/\/report-uri.cloudflare.com\/cdn-cgi\/beacon\/expect-ct\"\n1 < Report-To: {\"endpoints\":[{\"url\":\"https:\\\/\\\/a.nel.cloudflare.com\\\/report\\\/v3?s=KweEOrXp4mY%2F2SqPY6Id6sfpVgIgXQT%2FmgiX1IbsWs1e9AOYcju2LPMpU2qU66ojAp1vxw5Y8hgD%2BHpIfBWP4xpYpvHJqCFtR2H%2B16uP%2FHbsLKkXtLZ62rUlcQ%3D%3D\"}],\"group\":\"cf-nel\",\"max_age\":604800}\n1 < NEL: {\"success_fraction\":0,\"report_to\":\"cf-nel\",\"max_age\":604800}\n1 < Vary: Accept-Encoding\n1 < Server: cloudflare\n1 < CF-RAY: 72aa2918de8d93bc-CCU\n{\"page\":1,\"per_page\":6,\"total\":12,\"total_pages\":2,\"data\":[{\"id\":1,\"name\":\"cerulean\",\"year\":2000,\"color\":\"#98B2D1\",\"pantone_value\":\"15-4020\"},{\"id\":2,\"name\":\"fuchsia rose\",\"year\":2001,\"color\":\"#C74375\",\"pantone_value\":\"17-2031\"},{\"id\":3,\"name\":\"true red\",\"year\":2002,\"color\":\"#BF1932\",\"pantone_value\":\"19-1664\"},{\"id\":4,\"name\":\"aqua sky\",\"year\":2003,\"color\":\"#7BC4C4\",\"pantone_value\":\"14-4811\"},{\"id\":5,\"name\":\"tigerlily\",\"year\":2004,\"color\":\"#E2583E\",\"pantone_value\":\"17-1456\"},{\"id\":6,\"name\":\"blue turquoise\",\"year\":2005,\"color\":\"#53B0AE\",\"pantone_value\":\"15-5217\"}],\"support\":{\"url\":\"https:\/\/reqres.in\/#support-heading\",\"text\":\"To keep ReqRes free, contributions towards server costs are appreciated!\"}}\n\n"},{"result":{"nanos":17600,"millis":0.0176,"status":"passed"},"step":{"line":21,"prefix":"Then","index":2,"text":"status 200"}},{"result":{"nanos":17388900,"millis":17.3889,"status":"passed"},"step":{"line":22,"prefix":"*","index":3,"text":"print response"},"stepLog":"17:40:58.194 [print] {\n  \"page\": 1,\n  \"per_page\": 6,\n  \"total\": 12,\n  \"total_pages\": 2,\n  \"data\": [\n    {\n      \"id\": 1,\n      \"name\": \"cerulean\",\n      \"year\": 2000,\n      \"color\": \"#98B2D1\",\n      \"pantone_value\": \"15-4020\"\n    },\n    {\n      \"id\": 2,\n      \"name\": \"fuchsia rose\",\n      \"year\": 2001,\n      \"color\": \"#C74375\",\n      \"pantone_value\": \"17-2031\"\n    },\n    {\n      \"id\": 3,\n      \"name\": \"true red\",\n      \"year\": 2002,\n      \"color\": \"#BF1932\",\n      \"pantone_value\": \"19-1664\"\n    },\n    {\n      \"id\": 4,\n      \"name\": \"aqua sky\",\n      \"year\": 2003,\n      \"color\": \"#7BC4C4\",\n      \"pantone_value\": \"14-4811\"\n    },\n    {\n      \"id\": 5,\n      \"name\": \"tigerlily\",\n      \"year\": 2004,\n      \"color\": \"#E2583E\",\n      \"pantone_value\": \"17-1456\"\n    },\n    {\n      \"id\": 6,\n      \"name\": \"blue turquoise\",\n      \"year\": 2005,\n      \"color\": \"#53B0AE\",\n      \"pantone_value\": \"15-5217\"\n    }\n  ],\n  \"support\": {\n    \"url\": \"https:\/\/reqres.in\/#support-heading\",\n    \"text\": \"To keep ReqRes free, contributions towards server costs are appreciated!\"\n  }\n}\n \n"}],"line":18,"description":"","durationMillis":1311.588,"failed":false,"tags":["ByKrish","TC-001"],"executorName":"pool-1-thread-1","name":"Testing Get method","startTime":1657800656866,"refId":"[1:18]","endTime":1657800658196,"exampleIndex":-1},{"sectionIndex":1,"stepResults":[{"result":{"nanos":5123900,"millis":5.1239,"status":"passed"},"step":{"line":27,"prefix":"Given","index":0,"text":"url 'https:\/\/reqres.in\/api\/users\/3'"}},{"result":{"nanos":1299892600,"millis":1299.8926,"status":"passed"},"step":{"line":28,"prefix":"When","index":1,"text":"method put"},"stepLog":"17:40:57.169 request:\n1 > PUT https:\/\/reqres.in\/api\/users\/3\n1 > Host: reqres.in\n1 > Connection: Keep-Alive\n1 > User-Agent: Apache-HttpClient\/4.5.13 (Java\/17.0.2)\n1 > Accept-Encoding: gzip,deflate\n\n\n17:40:58.187 response time in milliseconds: 1018\n1 < 503\n1 < Date: Thu, 14 Jul 2022 12:11:22 GMT\n1 < Content-Type: text\/html; charset=utf-8\n1 < Transfer-Encoding: chunked\n1 < Connection: keep-alive\n1 < Cache-Control: no-cache, no-store\n1 < CF-Cache-Status: DYNAMIC\n1 < Expect-CT: max-age=604800, report-uri=\"https:\/\/report-uri.cloudflare.com\/cdn-cgi\/beacon\/expect-ct\"\n1 < Report-To: {\"endpoints\":[{\"url\":\"https:\\\/\\\/a.nel.cloudflare.com\\\/report\\\/v3?s=9HBpOgGmi8PH2DJtk8Jj7wx%2FYbcCmFXS3Y2HgDaxheBsA5bS%2BpaE4G4PL99Jg4s%2FHsgJJ%2Bqv9VVEOFLoGh3sDoC8tYCHzmbLXYeUACyo40iQqL0fX4SsNlYLwg%3D%3D\"}],\"group\":\"cf-nel\",\"max_age\":604800}\n1 < NEL: {\"success_fraction\":0,\"report_to\":\"cf-nel\",\"max_age\":604800}\n1 < Vary: Accept-Encoding\n1 < Server: cloudflare\n1 < CF-RAY: 72aa2918dcc593c1-CCU\n<!DOCTYPE html>\n\t<html>\n\t  <head>\n\t\t<meta name=\"viewport\" content=\"width=device-width, initial-scale=1\">\n\t\t<meta charset=\"utf-8\">\n\t\t<title>Application Error<\/title>\n\t\t<style media=\"screen\">\n\t\t  html,body,iframe {\n\t\t\tmargin: 0;\n\t\t\tpadding: 0;\n\t\t  }\n\t\t  html,body {\n\t\t\theight: 100%;\n\t\t\toverflow: hidden;\n\t\t  }\n\t\t  iframe {\n\t\t\twidth: 100%;\n\t\t\theight: 100%;\n\t\t\tborder: 0;\n\t\t  }\n\t\t<\/style>\n\t  <\/head>\n\t  <body>\n\t\t<iframe src=\"\/\/www.herokucdn.com\/error-pages\/application-error.html\"><\/iframe>\n\t  <\/body>\n\t<\/html>\n\n"},{"result":{"nanos":88500,"errorMessage":"status code was: 503, expected: 200, response time in milliseconds: 1018, url: https:\/\/reqres.in\/api\/users\/3, response: \n<!DOCTYPE html>\n\t<html>\n\t  <head>\n\t\t<meta name=\"viewport\" content=\"width=device-width, initial-scale=1\">\n\t\t<meta charset=\"utf-8\">\n\t\t<title>Application Error<\/title>\n\t\t<style media=\"screen\">\n\t\t  html,body,iframe {\n\t\t\tmargin: 0;\n\t\t\tpadding: 0;\n\t\t  }\n\t\t  html,body {\n\t\t\theight: 100%;\n\t\t\toverflow: hidden;\n\t\t  }\n\t\t  iframe {\n\t\t\twidth: 100%;\n\t\t\theight: 100%;\n\t\t\tborder: 0;\n\t\t  }\n\t\t<\/style>\n\t  <\/head>\n\t  <body>\n\t\t<iframe src=\"\/\/www.herokucdn.com\/error-pages\/application-error.html\"><\/iframe>\n\t  <\/body>\n\t<\/html>\nclasspath:com\/ps\/test\/First_Test.feature:29","millis":0.0885,"status":"failed"},"step":{"line":29,"prefix":"Then","index":2,"text":"status 200"},"stepLog":"17:40:58.188 classpath:com\/ps\/test\/First_Test.feature:29\nThen status 200\nstatus code was: 503, expected: 200, response time in milliseconds: 1018, url: https:\/\/reqres.in\/api\/users\/3, response: \n<!DOCTYPE html>\n\t<html>\n\t  <head>\n\t\t<meta name=\"viewport\" content=\"width=device-width, initial-scale=1\">\n\t\t<meta charset=\"utf-8\">\n\t\t<title>Application Error<\/title>\n\t\t<style media=\"screen\">\n\t\t  html,body,iframe {\n\t\t\tmargin: 0;\n\t\t\tpadding: 0;\n\t\t  }\n\t\t  html,body {\n\t\t\theight: 100%;\n\t\t\toverflow: hidden;\n\t\t  }\n\t\t  iframe {\n\t\t\twidth: 100%;\n\t\t\theight: 100%;\n\t\t\tborder: 0;\n\t\t  }\n\t\t<\/style>\n\t  <\/head>\n\t  <body>\n\t\t<iframe src=\"\/\/www.herokucdn.com\/error-pages\/application-error.html\"><\/iframe>\n\t  <\/body>\n\t<\/html>\nclasspath:com\/ps\/test\/First_Test.feature:29\n"},{"result":{"nanos":0,"millis":0.0,"status":"skipped"},"step":{"line":30,"prefix":"*","index":3,"text":"print response"}}],"line":26,"description":"","durationMillis":1305.105,"failed":true,"error":"status code was: 503, expected: 200, response time in milliseconds: 1018, url: https:\/\/reqres.in\/api\/users\/3, response: \n<!DOCTYPE html>\n\t<html>\n\t  <head>\n\t\t<meta name=\"viewport\" content=\"width=device-width, initial-scale=1\">\n\t\t<meta charset=\"utf-8\">\n\t\t<title>Application Error<\/title>\n\t\t<style media=\"screen\">\n\t\t  html,body,iframe {\n\t\t\tmargin: 0;\n\t\t\tpadding: 0;\n\t\t  }\n\t\t  html,body {\n\t\t\theight: 100%;\n\t\t\toverflow: hidden;\n\t\t  }\n\t\t  iframe {\n\t\t\twidth: 100%;\n\t\t\theight: 100%;\n\t\t\tborder: 0;\n\t\t  }\n\t\t<\/style>\n\t  <\/head>\n\t  <body>\n\t\t<iframe src=\"\/\/www.herokucdn.com\/error-pages\/application-error.html\"><\/iframe>\n\t  <\/body>\n\t<\/html>\nclasspath:com\/ps\/test\/First_Test.feature:29","tags":["TC-002","ByKrish"],"executorName":"pool-1-thread-2","name":"Testing Put method","startTime":1657800656866,"refId":"[2:26]","endTime":1657800658188,"exampleIndex":-1},{"sectionIndex":2,"stepResults":[{"result":{"nanos":4311800,"millis":4.3118,"status":"passed"},"step":{"line":34,"prefix":"Given","index":0,"text":"url 'https:\/\/reqres.in\/api\/user'"}},{"result":{"nanos":81090900,"millis":81.0909,"status":"passed"},"step":{"line":35,"prefix":"And","index":1,"text":"request { \"name\": \"Krishna Kamal\",\"job\": \"Scrum Master\"}"}},{"result":{"nanos":1221815000,"millis":1221.815,"status":"passed"},"step":{"line":36,"prefix":"When","index":2,"text":"method post"},"stepLog":"17:40:57.170 request:\n1 > POST https:\/\/reqres.in\/api\/user\n1 > Content-Type: application\/json; charset=UTF-8\n1 > Content-Length: 45\n1 > Host: reqres.in\n1 > Connection: Keep-Alive\n1 > User-Agent: Apache-HttpClient\/4.5.13 (Java\/17.0.2)\n1 > Accept-Encoding: gzip,deflate\n{\"name\":\"Krishna Kamal\",\"job\":\"Scrum Master\"}\n\n17:40:58.191 response time in milliseconds: 1021\n1 < 503\n1 < Date: Thu, 14 Jul 2022 12:11:22 GMT\n1 < Content-Type: text\/html; charset=utf-8\n1 < Transfer-Encoding: chunked\n1 < Connection: keep-alive\n1 < Cache-Control: no-cache, no-store\n1 < CF-Cache-Status: DYNAMIC\n1 < Expect-CT: max-age=604800, report-uri=\"https:\/\/report-uri.cloudflare.com\/cdn-cgi\/beacon\/expect-ct\"\n1 < Report-To: {\"endpoints\":[{\"url\":\"https:\\\/\\\/a.nel.cloudflare.com\\\/report\\\/v3?s=mdbzUvQt%2FSt0V1Ev2meJnXU5dkvN4W4COvPs7jIzehztn8zsYHkjjIE%2FUDeTGp650%2BwhjpMZHehxahtWljzW09p8zK9ieXkiE79lJTvSCSmqo3jCM4xGbj%2F%2Bgg%3D%3D\"}],\"group\":\"cf-nel\",\"max_age\":604800}\n1 < NEL: {\"success_fraction\":0,\"report_to\":\"cf-nel\",\"max_age\":604800}\n1 < Server: cloudflare\n1 < CF-RAY: 72aa2918da7b94c8-CCU\n<!DOCTYPE html>\n\t<html>\n\t  <head>\n\t\t<meta name=\"viewport\" content=\"width=device-width, initial-scale=1\">\n\t\t<meta charset=\"utf-8\">\n\t\t<title>Application Error<\/title>\n\t\t<style media=\"screen\">\n\t\t  html,body,iframe {\n\t\t\tmargin: 0;\n\t\t\tpadding: 0;\n\t\t  }\n\t\t  html,body {\n\t\t\theight: 100%;\n\t\t\toverflow: hidden;\n\t\t  }\n\t\t  iframe {\n\t\t\twidth: 100%;\n\t\t\theight: 100%;\n\t\t\tborder: 0;\n\t\t  }\n\t\t<\/style>\n\t  <\/head>\n\t  <body>\n\t\t<iframe src=\"\/\/www.herokucdn.com\/error-pages\/application-error.html\"><\/iframe>\n\t  <\/body>\n\t<\/html>\n\n"},{"result":{"nanos":42700,"errorMessage":"status code was: 503, expected: 201, response time in milliseconds: 1021, url: https:\/\/reqres.in\/api\/user, response: \n<!DOCTYPE html>\n\t<html>\n\t  <head>\n\t\t<meta name=\"viewport\" content=\"width=device-width, initial-scale=1\">\n\t\t<meta charset=\"utf-8\">\n\t\t<title>Application Error<\/title>\n\t\t<style media=\"screen\">\n\t\t  html,body,iframe {\n\t\t\tmargin: 0;\n\t\t\tpadding: 0;\n\t\t  }\n\t\t  html,body {\n\t\t\theight: 100%;\n\t\t\toverflow: hidden;\n\t\t  }\n\t\t  iframe {\n\t\t\twidth: 100%;\n\t\t\theight: 100%;\n\t\t\tborder: 0;\n\t\t  }\n\t\t<\/style>\n\t  <\/head>\n\t  <body>\n\t\t<iframe src=\"\/\/www.herokucdn.com\/error-pages\/application-error.html\"><\/iframe>\n\t  <\/body>\n\t<\/html>\nclasspath:com\/ps\/test\/First_Test.feature:37","millis":0.0427,"status":"failed"},"step":{"line":37,"prefix":"Then","index":3,"text":"status 201"},"stepLog":"17:40:58.192 classpath:com\/ps\/test\/First_Test.feature:37\nThen status 201\nstatus code was: 503, expected: 201, response time in milliseconds: 1021, url: https:\/\/reqres.in\/api\/user, response: \n<!DOCTYPE html>\n\t<html>\n\t  <head>\n\t\t<meta name=\"viewport\" content=\"width=device-width, initial-scale=1\">\n\t\t<meta charset=\"utf-8\">\n\t\t<title>Application Error<\/title>\n\t\t<style media=\"screen\">\n\t\t  html,body,iframe {\n\t\t\tmargin: 0;\n\t\t\tpadding: 0;\n\t\t  }\n\t\t  html,body {\n\t\t\theight: 100%;\n\t\t\toverflow: hidden;\n\t\t  }\n\t\t  iframe {\n\t\t\twidth: 100%;\n\t\t\theight: 100%;\n\t\t\tborder: 0;\n\t\t  }\n\t\t<\/style>\n\t  <\/head>\n\t  <body>\n\t\t<iframe src=\"\/\/www.herokucdn.com\/error-pages\/application-error.html\"><\/iframe>\n\t  <\/body>\n\t<\/html>\nclasspath:com\/ps\/test\/First_Test.feature:37\n"},{"result":{"nanos":0,"millis":0.0,"status":"skipped"},"step":{"line":38,"prefix":"*","index":4,"text":"print response"}}],"line":33,"description":"","durationMillis":1307.2604,"failed":true,"error":"status code was: 503, expected: 201, response time in milliseconds: 1021, url: https:\/\/reqres.in\/api\/user, response: \n<!DOCTYPE html>\n\t<html>\n\t  <head>\n\t\t<meta name=\"viewport\" content=\"width=device-width, initial-scale=1\">\n\t\t<meta charset=\"utf-8\">\n\t\t<title>Application Error<\/title>\n\t\t<style media=\"screen\">\n\t\t  html,body,iframe {\n\t\t\tmargin: 0;\n\t\t\tpadding: 0;\n\t\t  }\n\t\t  html,body {\n\t\t\theight: 100%;\n\t\t\toverflow: hidden;\n\t\t  }\n\t\t  iframe {\n\t\t\twidth: 100%;\n\t\t\theight: 100%;\n\t\t\tborder: 0;\n\t\t  }\n\t\t<\/style>\n\t  <\/head>\n\t  <body>\n\t\t<iframe src=\"\/\/www.herokucdn.com\/error-pages\/application-error.html\"><\/iframe>\n\t  <\/body>\n\t<\/html>\nclasspath:com\/ps\/test\/First_Test.feature:37","tags":["TC-003","ByKrish"],"executorName":"pool-1-thread-3","name":"Testing Post method","startTime":1657800656866,"refId":"[3:33]","endTime":1657800658192,"exampleIndex":-1}],"callDepth":0,"name":"Testing of  API","description":"","resultDate":"2022-07-14 05:40:58 pm","durationMillis":3923.9534,"passedCount":1}